%YAML 1.1
%TAG !u! tag:unity3d.com,2011:
--- !u!74 &7400000
AnimationClip:
  m_ObjectHideFlags: 0
  m_PrefabParentObject: {fileID: 0}
  m_PrefabInternal: {fileID: 0}
  m_Name: Ripple
  serializedVersion: 6
  m_Legacy: 0
  m_Compressed: 0
  m_UseHighQualityCurve: 1
  m_RotationCurves: []
  m_CompressedRotationCurves: []
  m_EulerCurves: []
  m_PositionCurves: []
  m_ScaleCurves: []
  m_FloatCurves: []
  m_PPtrCurves:
  - curve:
    - time: 0
      value: {fileID: 21300000, guid: 31161622e90ab0b46bd0f8cf626fb441, type: 3}
    - time: 0.083333336
      value: {fileID: 21300000, guid: 6666dba07b0570e4385e76831a47dcd4, type: 3}
    - time: 0.16666667
      value: {fileID: 21300000, guid: f62adafca5e77f043b93f9d600bc94d1, type: 3}
    - time: 0.25
      value: {fileID: 21300000, guid: 1262f83fddad85348bbdde5e2b5b7f8e, type: 3}
    - time: 0.33333334
      value: {fileID: 21300000, guid: cc59d9e383bacb548bcc0ba45539b1a2, type: 3}
    - time: 0.41666666
      value: {fileID: 21300000, guid: fe6b4c861fc5b7c41beac39a95c8e378, type: 3}
    - time: 0.5
      value: {fileID: 21300000, guid: 0be6bcb8872460044a4ca7eba9c5326e, type: 3}
    - time: 0.5833333
      value: {fileID: 21300000, guid: 81de1ab1fcbe4534ea732b1b229a8946, type: 3}
    - time: 0.6666667
      value: {fileID: 21300000, guid: c0a1bdc89cd27184da84b381f6101ab1, type: 3}
    - time: 0.75
      value: {fileID: 21300000, guid: 367a7afac13207549abe4883598a4d54, type: 3}
    - time: 0.8333333
      value: {fileID: 21300000, guid: 123b02b5327ee1b4f83a8eb04c050266, type: 3}
    - time: 0.9166667
      value: {fileID: 21300000, guid: 6898dd5a309fa53418a02294dee29d63, type: 3}
    - time: 1
      value: {fileID: 21300000, guid: 68a6199680b690c4baaffa282b4a9cf4, type: 3}
    - time: 1.0833334
      value: {fileID: 21300000, guid: 90e84db3815bdf04da8549aceb43293c, type: 3}
    - time: 1.1666666
      value: {fileID: 21300000, guid: 0deac123cf066ee499cacac667f0c663, type: 3}
    - time: 1.25
      value: {fileID: 21300000, guid: 8c13ce4c5a4fd9843bc987e536b2a42f, type: 3}
    attribute: m_Sprite
    path: 
    classID: 212
    script: {fileID: 0}
  m_SampleRate: 12
  m_WrapMode: 0
  m_Bounds:
    m_Center: {x: 0, y: 0, z: 0}
    m_Extent: {x: 0, y: 0, z: 0}
  m_ClipBindingConstant:
    genericBindings:
    - serializedVersion: 2
      path: 0
      attribute: 0
      script: {fileID: 0}
      typeID: 212
      customType: 23
      isPPtrCurve: 1
    pptrCurveMapping:
    - {fileID: 21300000, guid: 31161622e90ab0b46bd0f8cf626fb441, type: 3}
    - {fileID: 21300000, guid: 6666dba07b0570e4385e76831a47dcd4, type: 3}
    - {fileID: 21300000, guid: f62adafca5e77f043b93f9d600bc94d1, type: 3}
    - {fileID: 21300000, guid: 1262f83fddad85348bbdde5e2b5b7f8e, type: 3}
    - {fileID: 21300000, guid: cc59d9e383bacb548bcc0ba45539b1a2, type: 3}
    - {fileID: 21300000, guid: fe6b4c861fc5b7c41beac39a95c8e378, type: 3}
    - {fileID: 21300000, guid: 0be6bcb8872460044a4ca7eba9c5326e, type: 3}
    - {fileID: 21300000, guid: 81de1ab1fcbe4534ea732b1b229a8946, type: 3}
    - {fileID: 21300000, guid: c0a1bdc89cd27184da84b381f6101ab1, type: 3}
    - {fileID: 21300000, guid: 367a7afac13207549abe4883598a4d54, type: 3}
    - {fileID: 21300000, guid: 123b02b5327ee1b4f83a8eb04c050266, type: 3}
    - {fileID: 21300000, guid: 6898dd5a309fa53418a02294dee29d63, type: 3}
    - {fileID: 21300000, guid: 68a6199680b690c4baaffa282b4a9cf4, type: 3}
    - {fileID: 21300000, guid: 90e84db3815bdf04da8549aceb43293c, type: 3}
    - {fileID: 21300000, guid: 0deac123cf066ee499cacac667f0c663, type: 3}
    - {fileID: 21300000, guid: 8c13ce4c5a4fd9843bc987e536b2a42f, type: 3}
  m_AnimationClipSettings:
    serializedVersion: 2
    m_AdditiveReferencePoseClip: {fileID: 0}
    m_AdditiveReferencePoseTime: 0
    m_StartTime: 0
    m_StopTime: 1.3333334
    m_OrientationOffsetY: 0
    m_Level: 0
    m_CycleOffset: 0
    m_HasAdditiveReferencePose: 0
    m_LoopTime: 1
    m_LoopBlend: 0
    m_LoopBlendOrientation: 0
    m_LoopBlendPositionY: 0
    m_LoopBlendPositionXZ: 0
    m_KeepOriginalOrientation: 0
    m_KeepOriginalPositionY: 1
    m_KeepOriginalPositionXZ: 0
    m_HeightFromFeet: 0
    m_Mirror: 0
  m_EditorCurves: []
  m_EulerEditorCurves: []
  m_HasGenericRootTransform: 0
  m_HasMotionFloatCurves: 0
  m_GenerateMotionCurves: 0
  m_Events: []
